…
> finalResults$finalGenderNum <- as.numeric(finalResults$finalGender)
> corrtable$gender <- finalResults$finalGenderNum
Error in corrtable$gender <- finalResults$finalGenderNum :
  object 'corrtable' not found
> save(finalResults)
Error in save(finalResults) : 'file' must be specified
> save(finalResults, finalResults)
Error in save(finalResults, finalResults) : 'file' must be specified
> save('finalResults', finalResults)
Error in save("finalResults", finalResults) : 'file' must be specified
> cor(finalResults[5:6], use="complete.obs", method="pearson")
Error in cor(finalResults[5:6], use = "complete.obs", method = "pearson") :
  'x' must be numeric
> finalResults[5:6]
# A tibble: 183,249 × 2
   finalGender mergedNum
        <fctr>     <dbl>
1         male         1
2         male         1
3         male         1
4         male         1
5         male         0
6         male         0
7         male         1
8      unknown         0
9         male         1
10        male         1
# ... with 183,239 more rows
> finalResults[6:7]
# A tibble: 183,249 × 2
   mergedNum finalGenderNum
       <dbl>          <dbl>
1          1              1
2          1              1
3          1              1
4          1              1
5          0              1
6          0              1
7          1              1
8          0              2
9          1              1
10         1              1
# ... with 183,239 more rows
…
> finalResults[which(finalResults$repoName == "node")]
Error: Invalid column indexes: 8, 61, 91, 92, 93, 95, 107, 169, 187, 194, 210, 237, 303, 305, 326, 408, 463, 508, 520, 524, 569, 578, 603, 604, 631, 707, 721, 729, 746, 763, 782, 785, 815, 819, 822, 850, 851, 864, 883, 896, 897, 899, 900, 901, 902, 904, 906, 907, 913, 926, 931, 939, 977, 988, 994, 1014, 1016, 1048, 1064, 1125, 1157, 1174, 1204, 1274, 1285, 1301, 1306, 1323, 1385, 1423, 1458, 1462, 1487, 1524, 1537, 1538, 1540, 1544, 1546, 1548, 1550, 1552, 1565, 1629, 1637, 1641, 1651, 1680, 1681, 1684, 1720, 1731, 1738, 1806, 1872, 1891, 1927, 1939, 1943, 1951, 1969, 1970, 1985, 1998, 2014, 2015, 2017, 2018, 2033, 2042, 2055, 2071, 2123, 2152, 2153, 2158, 2184, 2189, 2198, 2206, 2207, 2346, 2376, 2406, 2412, 2435, 2447, 2502, 2503, 2504, 2507, 2511, 2533, 2538, 2561, 2571, 2576, 2586, 2587, 2790, 2884, 2931, 2992, 3039, 47672, 47710, 47740, 47780, 47829, 47858, 47866, 47909, 48118, 48123, 48124, 48126, 48215, 48265, 48278, 48279, 48292, 48293, 48294, 48307, 48339, 48351, 48355, 48362
> finalResults[finalResults$repoName == "node"]
Error: Length of logical index vector must be 1 or 7, got: 183249
> finalResults[finalResults$repoName == "node",]
# A tibble: 5,721 × 7
    gh_pr_id repoName merged        login finalGender mergedNum finalGenderNum
       <int>    <chr>  <lgl>        <chr>      <fctr>     <dbl>          <dbl>
1  100007286     node  FALSE thefourtheye     unknown         0              2
2  100046375     node  FALSE       edsadr        male         0              1
3  100064266     node  FALSE      jasnell        male         0              1
4  100065332     node  FALSE      jasnell        male         0              1
5  100065916     node  FALSE  joyeecheung     unknown         0              2
6  100067092     node  FALSE      jasnell        male         0              1
7  100073113     node  FALSE      sivaprs     unknown         0              2
8  100120856     node  FALSE      Kerumen     unknown         0              2
9  100148670     node  FALSE     addaleax     unknown         0              2
10 100154086     node  FALSE thefourtheye     unknown         0              2
# ... with 5,711 more rows
…
